,2020,2019,2018,2017,2016,2015,2014,2013,2012,2011,2010,2009,2008,2007,2006,2005,2004,2003,2002,2001,2000,1999,1998,1997,1996,1995,1994
fillingDate,2020-10-30,2019-10-31 00:00:00,2018-11-05 00:00:00,2017-11-03 00:00:00,2016-10-26 00:00:00,2015-10-28 00:00:00,2014-10-27 00:00:00,2013-10-30 00:00:00,2012-10-31 00:00:00,2011-10-26 00:00:00,2010-10-27 00:00:00,2009-10-27 00:00:00,2008-11-05 00:00:00,2007-11-15 00:00:00,2006-12-29,2005-12-01,2004-12-03,2003-12-19,2002-12-19 00:00:00,2001-12-21,2000-12-14 00:00:00,1999-12-22 00:00:00,,1997-12-05 00:00:00,1996-12-19 00:00:00,1995-12-19 00:00:00,1994-12-13 00:00:00
acceptedDate,2020-10-29 18:06:25,2019-10-30 18:12:36,2018-11-05 08:01:40,2017-11-03 08:01:37,2016-10-26 16:42:16,2015-10-28 16:31:09,2014-10-27 17:11:55,2013-10-29 20:38:28,2012-10-31 17:07:19,2011-10-26 16:35:25,2010-10-27 16:36:21,2009-10-27 16:18:29,2008-11-05 06:16:23,2007-11-15 16:49:37,2006-12-29 06:05:58,2005-11-30 21:22:48,2004-12-02 18:05:49,2003-12-19 17:25:45,2002-12-19 17:20:21,2001-12-21 00:00:00,2000-12-14 00:00:00,1999-12-22 00:00:00,,1997-12-05 00:00:00,1996-12-19 00:00:00,1995-12-19 00:00:00,1994-12-13 00:00:00
period,FY,FY,FY,FY,FY,FY,FY,FY,FY,FY,FY,FY,FY,FY,FY,FY,FY,FY,FY,FY,FY,FY,FY,FY,FY,FY,FY
netIncome,57411000000,55256000000,59531000000,48351000000,45687000000,53394000000,39510000000,37037000000,41733000000,25922000000,14013000000,8235000000,4834000000,3496000000,1989000000,1335000000,276000000,69000000,65000000,-25000000,786000000,601000000,309000000,-1045000000,-816000000,424000000,310178000
depreciationAndAmortization,11056000000,12547000000,10903000000,10157000000,10505000000,11257000000,7946000000,6757000000,3277000000,1814000000,1027000000,734000000,473000000,317000000,225000000,179000000,150000000,113000000,114000000,100000000,84000000,85000000,111000000,118000000,156000000,127000000,167958000
deferredIncomeTax,-215000000,-340000000,-32590000000,5966000000,4938000000,1382000000,2347000000,1141000000,4405000000,2868000000,1440000000,1040000000,-368000000,78000000,53000000,52000000,20000000,-11000000,-34000000,-36000000,163000000,-35000000,1000000.0,-7000000.0,-439000000,73000000,40800000
stockBasedCompensation,6829000000,6068000000,5340000000,4840000000,4210000000,3586000000,2863000000,2253000000,1740000000,1168000000,879000000,710000000,516000000,242000000,163000000,42000000,33000000,16000000,0.0,0.0,0.0,0.0,0.0,0.0,0.0,0.0,0.0
changeInWorkingCapital,-18780000000,41691000000,-12421000000,-5550000000,19095000000,3685000000,-24545000000,10517000000,2093000000,-3938000000,907000000,-549000000,7941000000,4619000000,-221000000,2441000000,845000000,-200000000,105000000,131000000,157000000,558000000,572000000,-906000000,-387000000,367000000,247729000
accountsReceivables,6917000000,245000000,-5322000000,-2093000000,1095000000,611000000,-4232000000,-2172000000,-5551000000,143000000,-2142000000,-939000000,-785000000,-385000000,-357000000,-121000000,-8000000.0,-201000000,-99000000,487000000,-272000000,274000000,80000000,461000000,435000000,-350000000,-199401000
inventory,-127000000,-289000000,828000000,-2723000000,217000000,-238000000,-76000000,-973000000,-15000000,275000000,-596000000,54000000,-163000000,-76000000,-105000000,-64000000,-45000000,-11000000,-34000000,22000000,-13000000,58000000,359000000,225000000,1113000000,-687000000,418204000
accountsPayables,-4062000000,-1923000000,9175000000,9618000000,1791000000,5400000000,5938000000,2340000000,4467000000,2515000000,6307000000,92000000,596000000,1494000000,1611000000,328000000,297000000,243000000,110000000,-356000000,345000000,-93000000,-34000000,106000000,374000000,-283000000,139095000
otherWorkingCapital,38321000000,57101000000,15410000000,-626000000,27863000000,8768000000,5083000000,29628000000,19111000000,17018000000,20956000000,20049000000,20598000000,12657000000,-1040000000,6816000000,4375000000,3530000000,3730000000,3625000000,-15000000,2736000000,2178000000,1606000000,2512000000,2899000000,15873000
otherNonCashItems,0.0,5416000000,4896000000,-166000000,4696000000,3586000000,2863000000,2253000000,1740000000,1168000000,903000000,736000000,538000000,254000000,-4000000.0,504000000,40000000,-8000000.0,48000000,-65000000,0.0,-228000000,-140000000,508000000,187000000,-41000000,0.0
netCashProvidedByOperatingActivities,80674000000,69391000000,77434000000,63598000000,66231000000,81266000000,59713000000,53666000000,50856000000,37529000000,18595000000,10159000000,9596000000,5470000000,2220000000,2535000000,934000000,289000000,90000000,185000000,826000000,798000000,775000000,188000000,519000000,-240000000,736995000
investmentsInPropertyPlantAndEquipment,-7309000000,-10495000000,-13313000000,0.0,-12734000000,-11247000000,-9571000000,-8165000000,-8295000000,-4260000000,-2005000000,-1144000000,-1091000000,-735000000,0.0,-260000000,-176000000,-164000000,-174000000,-232000000,0.0,0.0,0.0,0.0,0.0,0.0,0.0
acquisitionsNet,-1524000000,-624000000,-721000000,0.0,-297000000,-343000000,-3765000000,-496000000,-350000000,-244000000,-638000000,0.0,-220000000,0.0,0.0,0.0,0.0,0.0,0.0,0.0,0.0,0.0,0.0,0.0,0.0,0.0,0.0
purchasesOfInvestments,-114938000000,-107528000000,-74609000000,-159881000000,-31110000000,-35253000000,-45000000000,-22860000000,-151232000000,-102317000000,-57811000000,-46724000000,-22965000000,-11719000000,-7280000000,-11470000000,-3270000000,-2648000000,-4144000000,-4268000000,-4499000000,0.0,0.0,0.0,0.0,0.0,-312073000
salesMaturitiesOfInvestments,0.0,98724000000,56234000000,126339000000,21258000000,14538000000,18810000000,20317000000,13035000000,20437000000,46718000000,0.0,0.0,0.0,8312000000,0.0,0.0,0.0,0.0,0.0,3331000000,0.0,0.0,0.0,0.0,0.0,473595000
otherInvestingActivites,0.0,65819000000,48475000000,220000000,-23094000000,-23969000000,16947000000,-22570000000,-52617000000,-56352000000,-118000000,0.0,0.0,0.0,-58000000,0.0,0.0,0.0,0.0,0.0,-38000000,0.0,0.0,0.0,0.0,0.0,-3737000.0
netCashUsedForInvestingActivites,-4289000000,45896000000,16066000000,0.0,-45977000000,-56274000000,-22579000000,-33774000000,-48227000000,-40419000000,-13854000000,-17434000000,-8189000000,-3249000000,0.0,-2556000000,-1488000000,828000000,-252000000,892000000,0.0,-964000000,-543000000,-533000000,-119000000,-402000000,0.0
debtRepayment,-12629000000,-8805000000,-6500000000,-3500000000,-2500000000,-1499000000,-1158000000,-1082000000,-1226000000,-520000000,-406000000,2997000000,1267000000,863000000,0.0,17000000,-300000000,45000000,11000000,42000000,0.0,0.0,0.0,0.0,0.0,0.0,0.0
commonStockIssued,880000000,781000000,669000000,555000000,495000000,543000000,730000000,530000000,665000000,831000000,912000000,475000000,483000000,365000000,318000000,543000000,427000000,53000000,105000000,42000000,85000000,0.0,0.0,0.0,0.0,0.0,82081000
commonStockRepurchased,-72358000000,-66116000000,-72069000000,-32900000000,-29227000000,-34710000000,-44270000000,-22330000000,665000000,831000000,912000000,475000000,483000000,365000000,-355000000,543000000,427000000,27000000,105000000,42000000,-116000000,11000000,41000000,184000000,39000000,86000000,0.0
dividendsPaid,-14081000000,-14119000000,-13712000000,-12769000000,-12150000000,-11561000000,-11126000000,-10564000000,-2488000000,0.0,0.0,0.0,0.0,0.0,0.0,0.0,0.0,0.0,0.0,0.0,0.0,0.0,0.0,0.0,-14000000,-58000000,-56572000
otherFinancingActivites,0.0,-1936000000,4405000000,-1247000000,23394000000,28555000000,17847000000,16515000000,10871000000,10428000000,11606000000,0.0,0.0,0.0,361000000,0.0,0.0,0.0,0.0,0.0,0.0,0.0,0.0,0.0,0.0,0.0,0.0
netCashUsedProvidedByFinancingActivities,-86820000000,-90976000000,-87876000000,0.0,-20890000000,-17716000000,-37549000000,-16379000000,-1698000000,1444000000,1257000000,663000000,1116000000,739000000,0.0,543000000,127000000,27000000,105000000,42000000,0.0,11000000,19000000,23000000,396000000,195000000,0.0
effectOfForexChangesOnCash,0.0,0.0,0.0,0.0,0.0,0.0,0.0,0.0,0.0,0.0,0.0,0.0,0.0,0.0,0.0,0.0,0.0,0.0,0.0,0.0,0.0,0.0,0.0,0.0,0.0,0.0,0.0
netChangeInCash,-10435000000,24311000000,5624000000,0.0,-636000000,7276000000,-415000000,3513000000,931000000,-1446000000,5998000000,-6612000000,2523000000,2960000000,0.0,522000000,-427000000,1144000000,-58000000,1119000000,0.0,-155000000,251000000,-322000000,796000000,-447000000,0.0
cashAtEndOfPeriod,39789000000,50224000000,25913000000,20289000000,20484000000,21120000000,13844000000,14259000000,10746000000,9815000000,11261000000,5263000000,11875000000,9352000000,6392000000,3491000000,2969000000,3396000000,2252000000,2310000000,1191000000,1326000000,1481000000,1230000000,1552000000,756000000,1203488000
cashAtBeginningOfPeriod,50224000000,25913000000,20289000000,20484000000,21120000000,13844000000,14259000000,10746000000,9815000000,11261000000,5263000000,11875000000,9352000000,6392000000,3491000000,2969000000,3396000000,2252000000,2310000000,1191000000,1326000000,1481000000,1230000000,1552000000,756000000,1203000000,676413000
operatingCashFlow,80674000000,69391000000,77434000000,63598000000,66231000000,81266000000,59713000000,53666000000,50856000000,37529000000,18595000000,10159000000,9596000000,5470000000,2220000000,2535000000,934000000,289000000,90000000,185000000,826000000,798000000,775000000,188000000,519000000,-240000000,736995000
capitalExpenditure,7309000000,-10495000000,-13313000000,-12795000000,-12734000000,-11488000000,-9813000000,-9076000000,-9402000000,-7452000000,-2121000000,-1213000000,-1199000000,-986000000,-657000000,-260000000,-176000000,-164000000,-174000000,-232000000,-107000000,-47000000,-56000000,-437000000,-67000000,-159000000,-159587000
freeCashFlow,73365000000,58896000000,64121000000,50803000000,53497000000,69778000000,49900000000,44590000000,41454000000,30077000000,16474000000,8946000000,8397000000,4484000000,1563000000,2275000000,758000000,125000000,-84000000,-47000000,719000000,751000000,719000000,-249000000,452000000,-399000000,577408000
link,https://www.sec.gov/Archives/edgar/data/320193/000032019320000096/0000320193-20-000096-index.htm,https://www.sec.gov/Archives/edgar/data/320193/000032019319000119/0000320193-19-000119-index.html,https://www.sec.gov/Archives/edgar/data/320193/000032019318000145/0000320193-18-000145-index.html,https://www.sec.gov/Archives/edgar/data/320193/000032019317000070/0000320193-17-000070-index.html,https://www.sec.gov/Archives/edgar/data/320193/000162828016020309/0001628280-16-020309-index.html,https://www.sec.gov/Archives/edgar/data/320193/000119312515356351/0001193125-15-356351-index.html,https://www.sec.gov/Archives/edgar/data/320193/000119312514383437/0001193125-14-383437-index.html,https://www.sec.gov/Archives/edgar/data/320193/000119312513416534/0001193125-13-416534-index.html,https://www.sec.gov/Archives/edgar/data/320193/000119312512444068/0001193125-12-444068-index.html,https://www.sec.gov/Archives/edgar/data/320193/000119312511282113/0001193125-11-282113-index.html,https://www.sec.gov/Archives/edgar/data/320193/000119312510238044/0001193125-10-238044-index.html,https://www.sec.gov/Archives/edgar/data/320193/000119312509214859/0001193125-09-214859-index.html,https://www.sec.gov/Archives/edgar/data/320193/000119312508224958/0001193125-08-224958-index.html,https://www.sec.gov/Archives/edgar/data/320193/000104746907009340/0001047469-07-009340-index.html,https://www.sec.gov/Archives/edgar/data/320193/000110465906084288/a06-25759_210k.htm,https://www.sec.gov/Archives/edgar/data/320193/000110465905058421/a05-20674_110k.htm,https://www.sec.gov/Archives/edgar/data/320193/000104746904035975/a2147337z10-k.htm,https://www.sec.gov/Archives/edgar/data/320193/000104746903041604/a2124888z10-k.htm,https://www.sec.gov/Archives/edgar/data/320193/000104746902007674/0001047469-02-007674-index.html,https://www.sec.gov/Archives/edgar/data/320193/000091205701544436/a2066171z10-k405.htm,https://www.sec.gov/Archives/edgar/data/320193/000091205700053623/0000912057-00-053623-index.html,https://www.sec.gov/Archives/edgar/data/320193/000091205799010244/0000912057-99-010244-index.html,,https://www.sec.gov/Archives/edgar/data/320193/000104746997006960/0001047469-97-006960-index.html,https://www.sec.gov/Archives/edgar/data/320193/000032019396000023/0000320193-96-000023-index.html,https://www.sec.gov/Archives/edgar/data/320193/000032019395000016/0000320193-95-000016-index.html,https://www.sec.gov/Archives/edgar/data/320193/000032019394000016/0000320193-94-000016-index.html
finalLink,https://www.sec.gov/Archives/edgar/data/320193/000032019320000096/aapl-20200926.htm,https://www.sec.gov/Archives/edgar/data/320193/000032019319000119/a10-k20199282019.htm,https://www.sec.gov/Archives/edgar/data/320193/000032019318000145/a10-k20189292018.htm,https://www.sec.gov/Archives/edgar/data/320193/000032019317000070/a10-k20179302017.htm,https://www.sec.gov/Archives/edgar/data/320193/000162828016020309/a201610-k9242016.htm,https://www.sec.gov/Archives/edgar/data/320193/000119312515356351/d17062d10k.htm,https://www.sec.gov/Archives/edgar/data/320193/000119312514383437/d783162d10k.htm,https://www.sec.gov/Archives/edgar/data/320193/000119312513416534/d590790d10k.htm,https://www.sec.gov/Archives/edgar/data/320193/000119312512444068/d411355d10k.htm,https://www.sec.gov/Archives/edgar/data/320193/000119312511282113/d220209d10k.htm,https://www.sec.gov/Archives/edgar/data/320193/000119312510238044/d10k.htm,https://www.sec.gov/Archives/edgar/data/320193/000119312509214859/d10k.htm,https://www.sec.gov/Archives/edgar/data/320193/000119312508224958/d10k.htm,https://www.sec.gov/Archives/edgar/data/320193/000104746907009340/a2181030z10-k.htm,https://www.sec.gov/Archives/edgar/data/320193/000110465906084288/a06-25759_210k.htm,https://www.sec.gov/Archives/edgar/data/320193/000110465905058421/a05-20674_110k.htm,https://www.sec.gov/Archives/edgar/data/320193/000104746904035975/a2147337z10-k.htm,https://www.sec.gov/Archives/edgar/data/320193/000104746903041604/a2124888z10-k.htm,https://www.sec.gov/Archives/edgar/data/320193/000104746902007674/a2096490z10-k.htm,https://www.sec.gov/Archives/edgar/data/320193/000091205701544436/a2066171z10-k405.htm,https://www.sec.gov/Archives/edgar/data/320193/000091205700053623/a2032880z10-k.txt,https://www.sec.gov/Archives/edgar/data/320193/0000912057-99-010244.txt,,https://www.sec.gov/Archives/edgar/data/320193/0001047469-97-006960.txt,https://www.sec.gov/Archives/edgar/data/320193/0000320193-96-000023.txt,https://www.sec.gov/Archives/edgar/data/320193/0000320193-95-000016.txt,https://www.sec.gov/Archives/edgar/data/320193/0000320193-94-000016.txt
