,2020,2019,2018,2017,2016,2015,2014,2013,2012,2011,2010,2009,2008,2007,2006,2005,2004,2003,2002,2001,2000,1999,1998,1997,1996,1995,1994,1993,1992,1991,1990,1989,1988,1987,1986,1985
currentRatio,1.3636044481554577,1.540125617208044,1.1329261875803294,1.2760628484139107,1.352669417512594,1.1087706239920605,1.0801128483167317,1.6786385084062485,1.4958486845519174,1.6084376117268502,2.0112923462986196,2.7424821832087605,2.4616803860346295,2.361114098290139,2.2421573172616287,2.9563719862227327,2.6324626865671643,2.4976665252439543,3.249698431845597,3.388010540184453,2.8075530263838595,2.7663008392511297,2.432894736842105,1.8833883388338835,2.254118821767349,2.2468817204301077,2.302340424984763,1.729665071770335,2.4950911640953715,2.353327855382087,2.3398247322297956,2.5631284916201116,2.1559854897218864,2.7286012526096033,3.164133738601824,2.7864406779661017
quickRatio,1.0158550933657204,1.3844473032028604,0.994539761405688,1.0896700855039974,1.2208439865326683,0.8924947277012778,0.8242340184087756,1.4015071693618582,1.240750350267241,1.3467643904183053,1.7152784480262524,2.4787936728663307,2.0716718705648596,2.087858909560168,2.0020089630659865,2.7477037887485647,2.430597014925373,2.2621977089520575,2.9565741857659833,3.1633728590250327,2.5763062596999484,2.5222724338282765,2.1414473684210527,1.3718371837183718,1.618072890664004,1.24,1.4602662648092763,0.9066985645933014,1.7692847124824684,1.4790468364831553,1.7127555988315482,1.7899441340782123,1.7799274486094316,2.0271398747390394,2.5501519756838906,1.888135593220339
cashRatio,0.36071049035979963,0.46202160464632325,0.22352474359306126,0.2012518102644474,0.2592714477381465,0.2620022329735765,0.21819442693229102,0.3266068074579688,0.27881272378184835,0.35091169109760456,0.5434321011485378,0.45741352337910657,0.8426766959977292,1.0056995375846864,0.9877916859836192,1.0020091848450057,1.1078358208955223,1.4408145948239288,1.3582629674306392,1.5217391304347827,0.6161407139161924,0.856036152356359,0.9743421052631579,0.6765676567656765,0.7748377433849226,0.3251612903225806,0.6189810754999858,0.26953748006379585,0.349929873772791,0.49630238290879214,0.36514118792599803,0.4893854748603352,0.4498186215235792,1.1795407098121085,1.750759878419453,1.1423728813559322
daysOfSalesOutstanding,21.433437152796753,64.25876528784583,67.33249872926825,56.80067093014126,49.59276846952546,47.387608839826285,54.35014633879483,44.08147563044877,43.5925320111432,39.508032406765885,55.53484093522422,43.02074350308822,52.86369654238123,61.259060234941266,53.762619725601866,34.37513459191731,46.29182268389902,45.044304817141935,35.91518634622083,31.715457766175646,43.573218088437926,40.52249755461363,58.67278235987208,53.350515463917525,55.53137394487949,63.71497016814319,62.81504890546569,63.23555221261126,55.98349089882884,52.473450626089715,50.041381792011514,54.77763058289175,41.332596413657576,55.689590379556556,50.470557308096744,41.86652763295099
daysOfInventoryOutstanding,8.741883356235881,9.263638723714628,8.817631109699796,12.563630820713515,5.923304104250396,6.120287817030602,6.863786990682178,6.039622535316962,3.286603829428773,4.3960205491145565,9.701702030803471,6.466339602071409,8.708399737508202,7.966818067120868,7.184515564627834,6.090716019417476,6.12375415282392,4.543231829295399,3.968349842957236,0.9726259689922481,2.070654976792161,1.644885083370888,6.380546839982071,27.919656922807633,27.256627185561197,78.97062408581179,58.0399332935471,104.79234139836159,53.0443497870208,74.0132770066385,49.72179585571757,64.33209647495362,16.31592164741336,63.64969135802469,44.652076318742985,54.521466905187836
operatingCycle,30.175320509032634,73.52240401156047,76.15012983896804,69.36430175085478,55.51607257377586,53.507896656856886,61.21393332947701,50.12109816576573,46.87913584057197,43.904052955880445,65.23654296602768,49.48708310515963,61.57209627988943,69.22587830206213,60.947135290229696,40.46585061133479,52.41557683672294,49.587536646437336,39.883536189178066,32.68808373516789,45.64387306523009,42.16738263798452,65.05332919985415,81.27017238672516,82.78800113044069,142.68559425395497,120.8549821990128,168.02789361097285,109.02784068584964,126.48672763272822,99.7631776477291,119.10972705784536,57.64851806107094,119.33928173758125,95.12263362683973,96.38799453813883
daysOfPayablesOutstanding,91.04818971567418,104.31407696777144,124.57021422115831,126.92760620497985,103.61336926074777,92.46871631605622,98.18044148301234,76.58063336022363,87.98209366391185,82.88991324052087,110.90956222654967,79.59992991472959,94.44079872503984,114.43666414332576,90.20558431143836,65.6689927184466,87.97591362126245,93.62302733940875,80.3370379318676,70.8248546511628,72.59841842874334,66.78233438485805,58.81555356342447,43.76422194993874,32.567963902989284,51.83142369575816,47.016903058693934,51.66603162507144,39.05161613630669,39.31955340977671,47.76093630084421,45.23562152133581,15.215971873430437,58.016975308641975,48.33894500561168,24.485688729874777
cashConversionCycle,-60.87286920664155,-30.791672956210974,-48.42008438219027,-57.563304454125074,-48.097296686971916,-38.96081965919933,-36.96650815353534,-26.4595351944579,-41.102957823339885,-38.985860284640424,-45.67301926052198,-30.11284680956996,-32.86870244515041,-45.21078584126363,-29.258449021208662,-25.203142107111816,-35.56033678453951,-44.035490692971415,-40.45350174268953,-38.1367709159949,-26.954545363513255,-24.61495174687353,6.237775636429674,37.50595043678643,50.22003722745141,90.85417055819681,73.83807914031885,116.36186198590141,69.97622454954295,87.1671742229515,52.00224134688489,73.87410553650955,42.4325461876405,61.32230642893927,46.78368862122805,71.90230580826405
grossProfitMargin,0.38233247727810865,0.3781776810903472,0.38343718820007905,0.38469860491899105,0.3907595564809705,0.4005990201741437,0.3858803577778386,0.3762448072084723,0.4387123980882766,0.40478895878945764,0.39377539287083174,0.40139843841044165,0.3431448012561963,0.33966508372906773,0.2898265596686513,0.29021606489124974,0.2728590409469743,0.2751731915579185,0.2791710205503309,0.2302815588290136,0.27132656895903795,0.2764916856863384,0.24894798855411546,0.19319305182883773,0.09844401505135768,0.25836195986259264,0.25507642608111575,0.3419832017049016,0.4367151121772259,0.4747186558884134,0.5311263044260526,0.4899697199091597,0.5109309751903709,0.5129650507328072,0.5315457413249212,0.4171011470281543
operatingProfitMargin,0.24147314354406862,0.24572017188496928,0.26694026619477024,0.2676042820872994,0.27835410106706115,0.3047729071732666,0.28722339232473537,0.2866947516236616,0.35295959311984054,0.31215068961376086,0.2818704484476811,0.2736277823097541,0.19320176113796608,0.1836624177289011,0.1269997411338338,0.11844088722991888,0.03937673632081169,-0.00016110842597067828,0.0029606408916753742,-0.06414320343091554,0.07766503820618816,0.05852624714704923,0.04393199798013803,-0.15110860048015817,-0.14064883555374758,0.061833303200144636,0.04303295726468938,0.013789645230036354,0.11372936362353606,0.07085116500237755,0.12810363440086361,0.11998485995457986,0.1522967329894375,0.13942127019917325,0.1440588853838065,0.053701772679874867
pretaxProfitMargin,0.24439830246070343,0.2526655238417367,0.27448935409175623,0.27957894553164014,0.284605289395703,0.31027105662880006,0.29258458929401787,0.293458545433269,0.35629488588442765,0.31598444327430275,0.2842468378689153,0.28122596433982056,0.21229101881215554,0.20861451303840706,0.14589697126585555,0.13028497595291078,0.04626162580021742,0.014821975189302401,0.015151515151515152,-0.009696065634905836,0.13679068019541527,0.11020541245516792,0.05537788251136173,-0.14757802570258438,-0.1316993796399878,0.06092930753932381,0.05444550225993792,0.017550457565500815,0.12064343163538874,0.07925186241876685,0.14015833033465275,0.14080242240726723,0.16113976909850158,0.15407741450582488,0.16298633017875921,0.06256517205422316
netProfitMargin,0.20913611278072236,0.21238094505984456,0.22414202074587247,0.21092420845075338,0.211867983064288,0.22845773698735639,0.21614376760852322,0.21670469837926393,0.26665090602397323,0.2394664153941376,0.21484093522422384,0.1919356718331197,0.14883463160811602,0.1456302591018912,0.1029769609112089,0.09582944512238892,0.03333735958449088,0.011116481391976801,0.011320097526994078,-0.004661570016781652,0.09845922585494175,0.09797848059993479,0.05201144588453122,-0.14757802570258438,-0.08298586392759076,0.03832941601880311,0.03375628540471455,0.010906355772846935,0.07478481727105969,0.04913615469963544,0.08546239654551997,0.08591975775927328,0.09825595676737903,0.08154829011649756,0.08096740273396424,0.03180396246089677
effectiveTaxRate,0.14428164731484103,0.1594383680423506,0.16284652209099762,0.24556476150353415,0.2555725738121619,0.26368337585327173,0.26126058747639436,0.2615491974877879,0.25160052364471064,0.24215757930127174,0.2441747572815534,0.317503729487817,0.2989122552574329,0.3019169329073482,0.29418026969481903,0.2644628099173554,0.2793733681462141,0.2608695652173913,0.25287356321839083,0.28846153846153844,0.2802197802197802,0.11094674556213018,0.060790273556231005,0.0,0.3698841698841699,0.37091988130563797,0.3799986407774753,0.37857142857142856,0.38011695906432746,0.38,0.3902439024390244,0.3897849462365591,0.3902439024390244,0.47073170731707314,0.5032258064516129,0.49166666666666664
returnOnAssets,0.1772557180259843,0.16323009842961633,0.16277530931710985,0.12882641166580963,0.14202358821956815,0.18389846561848835,0.17041998973425523,0.17892270531400967,0.23703312431842966,0.22275309140593447,0.18638522006304617,0.1733647712679733,0.1221570807641767,0.1379255927723202,0.11560592850915431,0.11557440914206563,0.03428571428571429,0.01012472487160675,0.010320736741822802,-0.004152134196977246,0.11553726297221814,0.11645030032939353,0.0720447656796456,-0.2468698322702575,-0.15212527964205816,0.06804686246188413,0.05849384450999539,0.01682459872365113,0.12547348484848486,0.08872352604464796,0.15961021505376344,0.16545189504373178,0.19212295869356388,0.14682002706359945,0.13275862068965516,0.06517094017094018
returnOnEquity,0.8786635853012749,0.6106445053487756,0.5556011834209077,0.3607018433832909,0.3562366958026963,0.44735453060198566,0.3542004715501089,0.29977579745687943,0.35304119786820065,0.3383410559289956,0.2932142035111213,0.2602718078381795,0.22986210175939134,0.24057252958987063,0.19921875,0.17881060809000804,0.054373522458628844,0.01633909542978925,0.015873015873015872,-0.006377551020408163,0.19138056975894813,0.19362113402061856,0.1881851400730816,-0.8708333333333333,-0.3965014577259475,0.14615649775939332,0.13014638100684722,0.042941757156959526,0.2423411065386374,0.17543859649122806,0.3282653766413269,0.30551816958277256,0.3988035892323031,0.2595693779904306,0.2219020172910663,0.11090909090909092
returnOnCapitalEmployed,0.30705825278265964,0.28237785547985805,0.29185014972217327,0.23347115717382197,0.25289269820339544,0.34574582210885163,0.31761198638882127,0.3070551358499345,0.40548421343494134,0.38693001210393546,0.3404270946181671,0.3352132240588971,0.2706043956043956,0.3120638085742772,0.2625302776225079,0.22499070286351805,0.07132216014897579,0.02063705697622252,0.01875,-0.011547856984232734,0.22422997946611908,0.18715393133997785,0.11881545684362586,-0.432712215320911,-0.3853019934543291,0.17255504352278545,0.14896376026852937,0.05257228689447991,0.3055754110078628,0.21958717610891523,0.39969214982042073,0.40237966468361275,0.5227091633466135,0.41041041041041043,0.3730445246690734,0.187207488299532
netIncomePerEBT,0.855718352685159,0.8405616319576494,0.8165781929413056,0.7544352384964659,0.7444274261878381,0.7363166241467283,0.7387394125236056,0.7384508025122122,0.7483994763552894,0.7578424206987282,0.7558252427184466,0.682496270512183,0.7010877447425671,0.6980830670926518,0.705819730305181,0.7355371900826446,0.720626631853786,0.75,0.7471264367816092,0.4807692307692308,0.7197802197802198,0.8890532544378699,0.939209726443769,1.0,0.6301158301158302,0.629080118694362,0.6200013592225248,0.6214285714285714,0.6198830409356725,0.62,0.6097560975609756,0.6102150537634409,0.6097560975609756,0.5292682926829269,0.4967741935483871,0.5083333333333333
ebtPerEbit,1.0,1.0,1.0,1.0,1.0,1.0,1.0,1.0,1.0,1.0,1.0,1.0,1.0,1.0,1.0,1.0,1.0,1.0,1.0,1.0,1.0,1.0,1.0,1.0,1.0,1.0,1.0,1.0,1.0,1.0,1.0,1.0,1.0,1.0,1.0,1.0
ebitPerRevenue,0.24439830246070343,0.2526655238417367,0.27448935409175623,0.27957894553164014,0.284605289395703,0.31027105662880006,0.29258458929401787,0.293458545433269,0.35629488588442765,0.31598444327430275,0.2842468378689153,0.28122596433982056,0.21229101881215554,0.20861451303840706,0.14589697126585555,0.13028497595291078,0.04626162580021742,0.014821975189302401,0.015151515151515152,-0.009696065634905836,0.13679068019541527,0.11020541245516792,0.05537788251136173,-0.14757802570258438,-0.1316993796399878,0.06092930753932381,0.05444550225993792,0.017550457565500815,0.12064343163538874,0.07925186241876685,0.14015833033465275,0.14080242240726723,0.16113976909850158,0.15407741450582488,0.16298633017875921,0.06256517205422316
debtRatio,0.7982666847799239,0.7326921031797611,0.7070285050242668,0.6428451530564666,0.6013224075651412,0.5889200778384336,0.5188600709975457,0.4031449275362319,0.32859641948382406,0.34163150613125265,0.36433768272082784,0.3339087598155828,0.468563630850096,0.4266777133388567,0.41970357454228424,0.35364903471560905,0.3694409937888199,0.38033749082905355,0.3497935852651635,0.3489453579139678,0.39629575187417315,0.39856616934702577,0.617160177197482,0.7165131112686038,0.616331096196868,0.5344246509388542,0.5505534302416144,0.6081995745503771,0.48200757575757575,0.4942759015455066,0.5137768817204301,0.4584548104956268,0.5182516810758886,0.43369418132611637,0.4017241379310345,0.41239316239316237
debtEquityRatio,3.957039440456695,2.7410043320661304,2.4133013523477094,1.7999060031183092,1.5082924623193943,1.432616982950023,1.0783974468161404,0.6754486074351067,0.48941713898993316,0.5189062194087319,0.5731623108953569,0.5012958280657396,0.8816928197812649,0.7442196531791907,0.7232572115384616,0.5471470667023841,0.5858944050433412,0.6137816717973005,0.537973137973138,0.5359693877551021,0.6564402240077916,0.6626932989690721,1.6120584652862362,2.5275,1.6064139941690962,1.1478800413650465,1.224958576361106,1.552319842053307,0.9309556470050298,0.9773627617430674,1.056668970283345,0.8465679676985195,1.0757726819541376,0.7667464114832536,0.6714697406340058,0.7018181818181818
longTermDebtToCapitalization,0.6016060388034584,0.5036177624180587,0.46661721806831874,0.42034732372196804,0.37032836465759345,0.30882421069699567,0.20626325302062135,0.12070401184265776,,,,,,,,,,,0.07163908410791203,0.07481708756195421,0.06807351940095303,0.0881316098707403,0.3674884437596302,0.4421199442119944,0.31559694047223147,0.0945692883895131,0.11328039979566727,0.003443187407771766,,,,,,,,
totalDebtToCapitalization,0.6218348294642289,0.5193838799628203,0.4965984796519549,0.5299004720388854,0.3944263177527729,0.3412461434019748,0.2403603873551164,,,,,,,,,,,,,,0.43296976390998204,,,0.4485294117647059,0.35546507986219855,0.20845839017735335,0.13086125038792681,0.29061624649859946,,,,,,,,
interestCoverage,,18.382829977628635,22.500925925925927,27.588893671975892,42.1510989010989,98.92905866302866,139.27864583333334,368.7867647058824,51.252757352941174,65.90558766859345,59.61414790996785,29.646191646191646,10.55895865237366,7.740340030911901,,9.918032786885245,5.803030303030303,1.0,1.3384615384615384,-0.18772563176895307,52.0,2.067278287461774,4.217948717948718,-95.0,,12.961538461538462,12.61659899629284,2.413793103448276,13.571428571428571,,,,,,,
cashFlowToDebtRatio,0.7508749069247952,0.709613752339268,0.7325897122962375,0.42090285177267883,0.7928817698606522,1.314388303034224,1.6918260376823913,,,,,,,,,,,,,,0.26339285714285715,,,0.19262295081967212,0.4572687224669604,-0.31413612565445026,2.053826217812953,-0.7843373493975904,,,,,,,,
companyEquityMultiplier,4.957039440456695,3.7410043320661304,3.4133013523477094,2.799906003118309,2.5082924623193943,2.432616982950023,2.0783974468161404,1.6754486074351067,1.489417138989933,1.518906219408732,1.573162310895357,1.5012958280657396,1.8816928197812648,1.7442196531791907,1.7232572115384615,1.547147066702384,1.5858944050433412,1.6137816717973006,1.537973137973138,1.535969387755102,1.6564402240077916,1.6626932989690721,2.6120584652862364,3.5275,2.6064139941690962,2.1478800413650467,2.224958576361106,2.552319842053307,1.9314128943758573,1.9773627617430674,2.056668970283345,1.8465679676985196,2.0757726819541378,1.7679425837320575,1.6714697406340058,1.701818181818182
receivablesTurnover,17.029466501240694,5.68015893808401,5.42085927135422,6.425980433380988,7.359944025393358,7.702435487591866,6.715713288511702,8.280122087108182,8.372993794136528,9.238627635060169,6.572450624748085,8.484279216927032,6.9045493197278915,5.958302308265078,6.789103690685413,10.618140243902438,7.884761904761905,8.10313315926893,10.16283185840708,11.508583690987125,8.376705141657922,9.00734214390602,6.220942408376963,6.841545893719807,6.572860962566845,5.728638011393061,5.810709477426523,5.772069464544139,6.519779208831647,6.955898566703418,7.293963254593176,6.663303909205548,8.830802603036876,6.554187192118227,7.231939163498099,8.718181818181819
payablesTurnover,4.008866086627577,3.4990483605848257,2.9300744345834526,2.8756549572876104,3.5227114281117604,3.947280924204001,3.71764472115512,4.766218089149193,4.148571428571429,4.40343083652269,3.2909696213067,4.585431173004821,3.8648550724637682,3.1895372233400403,4.046312684365781,5.558178752107926,4.148862853204687,3.898613518197574,4.543358946212953,5.153558052434457,5.027657735522904,5.4655172413793105,6.205841446453407,8.34014598540146,11.207332490518331,7.04206008583691,7.76316550548532,7.064602960969045,9.346604215456674,9.282913165266107,7.642228739002933,8.068862275449101,23.987951807228917,6.29126213592233,7.5508474576271185,14.906666666666666
inventoryTurnover,41.75301649839941,39.40136385776912,41.3943377148635,29.05211122554068,61.62101313320826,59.63771817794807,53.17764092846992,60.43424036281179,111.05689001264223,83.02963917525773,37.62226450999049,56.44615384615385,41.913555992141454,45.8150289017341,50.803703703703704,59.92727272727273,59.603960396039604,80.33928571428571,91.97777777777777,375.27272727272725,176.27272727272728,221.9,57.205128205128204,13.073226544622425,13.391238670694865,4.621971830985916,6.288773595826664,3.48307896483079,6.88103448275862,4.931547619047619,7.340845070422535,5.673684210526316,22.370786516853933,5.734513274336283,8.174311926605505,6.6946107784431135
fixedAssetTurnover,7.466545177609748,6.960618545668575,6.430248886306411,,7.9836727138097,10.400738729918562,8.863217610550814,10.297644152557691,10.128656484597464,13.919120483476918,13.679739932885907,14.524373730534869,13.229735234215886,13.103711790393014,,17.05140758873929,11.71004243281471,9.278026905829597,9.246376811594203,9.50886524822695,,19.28930817610063,17.07183908045977,14.569958847736626,16.44314381270903,15.558368495077357,,12.086363636363636,15.33982683982684,14.082589285714286,13.964824120603016,15.820359281437126,19.666666666666668,20.46923076923077,17.77570093457944,21.31111111111111
assetTurnover,0.8475615027416885,0.7685722388306608,0.7262150522933899,0.6107711040474902,0.670340021014281,0.804956172828876,0.7884566444817308,0.8256521739130435,0.88892675390767,0.9302059791528817,0.8675498450447574,0.9032441422285846,0.8207571009804913,0.9470943306900225,1.1226387678000582,1.2060427668600122,1.0284472049689442,0.9107850330154071,0.9117180057161004,0.8907158279355589,1.1734528884315742,1.1885293547762061,1.3851713686173934,1.6728088825891803,1.8331469052945564,1.7753169635692505,1.7328282365400869,1.5426416553858056,1.6777935606060606,1.8056668574699486,1.8676075268817205,1.9256559766763848,1.9553314121037464,1.8004059539918809,1.639655172413793,2.049145299145299
operatingCashFlowPerShare,4.649230448454163,3.7315712296616437,3.8716155987799468,3.047491375711535,3.0103461986760314,3.5070357352898784,2.438061407806631,2.057114382091383,1.9214145383104126,1.4308754003355193,0.7181754982233894,0.40002362576783745,0.379889152810768,0.21967871485943774,0.09393396459214211,0.10567783891945973,0.04306528956104758,0.01419728826881509,0.004442250740375123,0.009557759867741268,0.045445022306573664,0.04090629485339348,0.04120586984262016,0.013314447592067988,0.03744588744588745,-0.01741654571843251,0.05542015833578978,-0.04872754491017964,0.06712827988338192,0.014029097387173397,0.06840760715299461,0.03517901748542881,0.020208963431399506,0.012754409769335142,0.02186285397001666,0.019114252740911712
freeCashFlowPerShare,4.2280138811865,3.167191986599878,3.20598010963361,2.4343800805099707,2.431557587694156,3.0112708824976884,2.037399967336273,1.7092149647347439,1.566193138884691,1.1467515632148848,0.6362583037231577,0.35226019845644985,0.3324228028503563,0.18008032128514057,0.06613458858446762,0.09483908620977155,0.034950202877167096,0.006140695617999607,-0.004146100691016782,-0.0024281876420748087,0.03955807631770758,0.038497026860775066,0.0382284134410889,-0.017634560906515582,0.03261183261183261,-0.02895500725689405,0.04341961992191495,-0.06467065868263473,0.05291545189504373,-0.002152612826603325,0.052512063582174286,0.018595614765473216,0.010310695628265053,0.006919945725915875,0.017212659633536923,0.01521927293710329
cashPerShare,5.241031369137106,5.407554411106425,3.31497773348541,3.5546079710314378,3.0523440529674755,1.7952919255752002,1.0238853503184713,1.5542011652867218,1.1005364969019193,0.989476894921458,0.9894948246562645,0.9239250275633958,0.9695170229612035,0.6179116465863453,0.42778035226421474,0.3443805235951309,0.25193655477683513,0.22430732953428964,0.2140671273445212,0.22401322587311429,0.22155823829124954,0.1653680541316383,0.12228838792003403,0.103328611898017,0.1259018759018759,0.0690856313497823,0.09458758700347111,0.06676646706586827,0.10466472303206997,0.06628562945368172,0.07074936133976724,0.056133777407715794,0.06949408853450646,0.038331071913161464,0.03997779011660189,0.024307559145989612
payoutRatio,0.24526658654264863,0.25551976255972203,0.23033377567989788,0.264089677566131,0.26593998292730975,0.2165224557066337,0.2815995950392306,0.28522828522828525,0.05961708959336736,0.0,0.0,0.0,0.0,0.0,0.0,0.0,0.0,0.0,0.0,0.0,0.0,0.0,0.0,0.0,-0.01715686274509804,0.13679245283018868,0.18238559794698528,0.6436781609195402,0.10754716981132076,0.18387096774193548,0.11368421052631579,0.11013215859030837,0.1,0.06912442396313365,0.0,0.0
operatingCashFlowSalesRatio,0.2938782944465694,0.2667099710193947,0.29154916319960844,0.27743702941099485,0.3071383191352214,0.3477140962283123,0.32666648431302825,0.3140015212685039,0.32494185600736064,0.3466914244011492,0.2850900728248371,0.23677893019461602,0.2954524461960036,0.22785970174123135,0.11493657778928294,0.18196827219869355,0.11281555743447276,0.04656033510552602,0.01567398119122257,0.034495618124184224,0.10346987348114745,0.13009455493968047,0.13044941928968187,0.026549922327354893,0.05278145021865148,-0.021695895859699874,0.08020624790232576,-0.08160962767957879,0.12995625793706786,0.029957203994293864,0.17344368477869737,0.09595003785011355,0.07221812822402358,0.07065013152950018,0.16561514195583596,0.13816475495307612
freeCashFlowOperatingCashFlowRatio,0.909400798274537,0.848755602311539,0.8280729395356046,0.7988144281266707,0.8077335386752427,0.8586370683926857,0.8356639257783063,0.8308798867066671,0.8151250589900897,0.8014335580484425,0.8859370798601774,0.880598484102766,0.8750521050437683,0.819744058500914,0.7040540540540541,0.8974358974358975,0.8115631691648822,0.43252595155709345,-0.9333333333333333,-0.25405405405405407,0.8704600484261501,0.9411027568922306,0.927741935483871,-1.324468085106383,0.8709055876685935,1.6625,0.7834625743729605,1.327188940092166,0.7882736156351792,-0.15343915343915343,0.7676348547717843,0.5285996055226825,0.5102040816326531,0.5425531914893617,0.7873015873015873,0.7962264150943397
cashFlowCoverageRatios,0.7508749069247952,0.709613752339268,0.7325897122962375,0.42090285177267883,0.7928817698606522,1.314388303034224,1.6918260376823913,,,,,,,,,,,,,,0.26339285714285715,,,0.19262295081967212,0.4572687224669604,-0.31413612565445026,2.053826217812953,-0.7843373493975904,,,,,,,,
shortTermCoverageRatios,9.195714122877009,11.603846153846154,6.472250083584085,1.1801009426259927,8.171622455274521,9.561830803623955,9.466233354470514,,,,,,,,0.5970952124798279,,,,,,0.2912552891396333,,,7.52,2.7903225806451615,-0.5206073752711496,13.555676133019423,-0.7910085054678008,5.005434782608695,1.2684563758389262,7.837398373983739,8.894736842105264,0.9333333333333333,,,
capitalExpenditureCoverageRatio,11.037624846080176,-6.611815150071463,-5.816420040561857,-4.9705353653771,-5.201115124862572,-7.0739902506963785,-6.085091205543667,-5.9129572498898195,-5.409061901723038,-5.036097691894794,-8.767090994813767,-8.37510305028854,-8.003336113427856,-5.547667342799189,-3.3789954337899544,-9.75,-5.306818181818182,-1.7621951219512195,-0.5172413793103449,-0.7974137931034483,-7.719626168224299,-16.97872340425532,-13.839285714285714,-0.4302059496567506,-7.746268656716418,1.509433962264151,-4.618139322125236,3.056338028169014,-4.723076923076923,-0.8669724770642202,-4.303571428571429,-2.1213389121338913,-2.0416666666666665,-2.186046511627907,-4.701492537313433,-4.907407407407407
dividendPaidAndCapexCoverageRatio,3.771575502571295,19.14762693156733,194.0701754385965,-2446.076923076923,-113.40924657534246,1113.2328767123288,45.47829398324448,36.06586021505376,-7.355510558287532,,,,,,,,,,,,,,,,-9.79245283018868,2.376237623762376,-7.154249381158084,4.146496815286624,-6.673913043478261,-1.173913043478261,-5.670588235294118,-2.6825396825396823,-2.826923076923077,-2.647887323943662,,
dividendPayoutRatio,0.2452665865426486,0.25551976255972203,0.23033377567989785,0.26408967756613105,0.26593998292730975,0.2165224557066337,0.28159959503923054,0.28522828522828525,0.05961708959336736,,,,,,,,,,,,,,,,-0.017156862745098037,0.13679245283018868,0.18238559794698528,0.6436781609195401,0.10754716981132076,0.18387096774193548,0.11368421052631579,0.11013215859030838,0.1,0.06912442396313363,,
priceBookValueRatio,30.553901085207258,12.795197166979623,9.904366469993896,6.4889075193029315,5.045716221179113,5.5952829317582005,5.769662384465741,3.9959592806740645,4.829985249166737,4.961046312184298,5.975785398924483,5.804341684070796,3.9504682139800287,11.326581977704377,6.7987928421706725,6.516581493704797,3.627941807722616,1.94532116410135,1.379114774114774,1.554508998979592,1.526227952697346,4.180512864690721,3.6306083507917175,1.7400429000000002,1.4732142857142856,1.4737997380213719,2.0986484397564555,1.7810409871668311,2.7306250388660263,3.488760049801924,2.6085976807187286,3.9183764576043068,4.985917248255234,5.588575789473684,3.0585028357348705,2.0255808145454544
priceToBookRatio,30.553901085207258,12.795197166979623,9.904366469993896,6.4889075193029315,5.045716221179113,5.5952829317582005,5.769662384465741,3.9959592806740645,4.829985249166737,4.961046312184298,5.975785398924483,5.804341684070796,3.9504682139800287,11.326581977704377,6.7987928421706725,6.516581493704797,3.627941807722616,1.94532116410135,1.379114774114774,1.554508998979592,1.526227952697346,4.180512864690721,3.6306083507917175,1.7400429000000002,1.4732142857142856,1.4737997380213719,2.0986484397564555,1.7810409871668311,2.7306250388660263,3.488760049801924,2.6085976807187286,3.9183764576043068,4.985917248255234,5.588575789473684,3.0585028357348705,2.0255808145454544
priceToSalesRatio,7.272321523437178,4.450144139097881,3.9956443237276154,3.79445713218807,3.000886016212281,2.8574331742506898,3.520821302552039,2.888635967281025,3.648072662764843,3.5112616579183182,4.378516826370256,4.280372238293905,2.5579096197543025,6.8565312546863275,3.514322947772819,3.492412420644606,2.224354706607078,1.3235204246818109,0.9835379658655522,1.1362437583442104,0.785195816325692,2.115473089664167,1.0034436815350953,0.2948808755825449,0.3083367232787552,0.38650271560296506,0.5443299702113934,0.4523491337595587,0.8426523155072667,0.9771182450467586,0.6791365318459878,1.1019506843300528,1.2284143944976664,1.7557494776399851,1.1159836845425868,0.5808495557872784
priceEarningsRatio,34.773150493918536,20.953594202360865,17.826395561311518,17.989671076916714,14.163942908267124,12.507491372064278,16.289256643887622,13.329826205362204,13.68108107023219,14.662856384846847,20.380272604010564,22.301077217243474,17.186252904426976,47.081776115560636,34.12727387442534,36.444043020224726,66.72258194202898,119.05929385507247,86.88423076923077,-243.74701104000002,7.974832317720102,21.59120121797005,19.29274728802589,-1.9981353875598087,-3.715533088235294,10.083709999999998,16.125292332531643,41.475736091954026,11.26769237735849,19.885932283870968,7.946612303157894,12.825346731277534,12.5021875,21.53018138248848,13.783123168831171,18.263433573770488
priceToFreeCashFlowsRatio,27.211358863304806,19.658581249077223,16.550321332487577,17.121402008542802,12.096156039591005,9.570709884490814,12.897565731462926,11.071916868535546,13.77315955767839,12.6372498323636,17.335726599490105,20.52865759937402,9.893812854590925,36.70782544603033,43.42875734883685,21.385845025054948,24.294765984168865,65.720730208,-67.23184523809523,-129.6526654468085,8.717966900873435,17.27871096138482,8.291319766342141,-8.385748915662651,6.707688053097345,-10.715521403508772,8.662351275216139,-4.176376203703704,8.225725840220386,-212.57375889655174,5.100866005405406,21.726520208955225,33.339166666666664,45.804405490196075,8.558874870967742,5.279949990521327
priceToOperatingCashFlowsRatio,24.74603147242429,16.685330968650863,13.704873236051812,13.676822954180947,9.770470922226751,8.217766277656093,10.77803041213806,9.19943303335445,11.226847496932516,10.127916097098243,15.358363000806667,18.07750476267349,8.657601765318883,30.09102180987203,30.57619267397838,19.19242502248521,19.716737276231264,28.425921370242218,62.749722222222225,32.93878527567568,7.588641890711864,16.26104252130326,7.692205047741936,11.106656808510639,5.841763005780346,-17.814554333333334,6.786628030203733,-5.542840307219663,6.484122649294245,32.61713760846561,3.9156025352697093,11.48463001183432,17.009778911564624,24.851326382978726,6.7384157714285715,4.204035652830189
priceCashFlowRatio,24.74603147242429,16.685330968650863,13.704873236051812,13.676822954180947,9.770470922226751,8.217766277656093,10.77803041213806,9.19943303335445,11.226847496932516,10.127916097098243,15.358363000806667,18.07750476267349,8.657601765318883,30.09102180987203,30.57619267397838,19.19242502248521,19.716737276231264,28.425921370242218,62.749722222222225,32.93878527567568,7.588641890711864,16.26104252130326,7.692205047741936,11.106656808510639,5.841763005780346,-17.814554333333334,6.786628030203733,-5.542840307219663,6.484122649294245,32.61713760846561,3.9156025352697093,11.48463001183432,17.009778911564624,24.851326382978726,6.7384157714285715,4.204035652830189
priceEarningsToGrowthRatio,10.919861107850426,7.051645901554949,6.452433826818718,6.794300529077393,5.639616770191574,5.245168708214351,7.22014756265556,6.2934071602267485,6.553330928168989,6.959921044986303,9.549841071793859,10.249713280170756,7.856608302552219,21.216451159647097,14.596625866750975,15.821262921115366,26.18863756259455,43.860775041875186,31.856712671648605,-85.38379806157234,2.6232268177044227,7.62272248009555,6.56685230550874,-0.5105992412108097,-0.9319764116646369,2.514722813812074,3.8808328060582054,10.028156837058523,2.7977548034124524,4.848401616626424,2.02663349819207,3.345137127030039,3.2916212492760963,5.74335589941147,3.5939488673903197,4.582384592926633
priceSalesRatio,7.272321523437178,4.450144139097881,3.9956443237276154,3.79445713218807,3.000886016212281,2.8574331742506898,3.520821302552039,2.888635967281025,3.648072662764843,3.5112616579183182,4.378516826370256,4.280372238293905,2.5579096197543025,6.8565312546863275,3.514322947772819,3.492412420644606,2.224354706607078,1.3235204246818109,0.9835379658655522,1.1362437583442104,0.785195816325692,2.115473089664167,1.0034436815350953,0.2948808755825449,0.3083367232787552,0.38650271560296506,0.5443299702113934,0.4523491337595587,0.8426523155072667,0.9771182450467586,0.6791365318459878,1.1019506843300528,1.2284143944976664,1.7557494776399851,1.1159836845425868,0.5808495557872784
dividendYield,0.007053332328502797,0.012194555267798987,0.0129209393389536,0.014680072605940824,0.018775844032249488,0.017311421552545763,0.017287442956759966,0.021397749740618983,0.004357630021145365,,,,,,,,,,,,,,,,0.004617604617604618,0.013565686917829717,0.011310529706121057,0.015519390891399002,0.009544737840680495,0.00924628350922572,0.014305996843603274,0.008587070657647484,0.007998600244957133,0.0032105825183319546,,
enterpriseValueMultiple,26.709057496462002,14.741690706641242,13.33796032731438,13.068325121654977,9.68399028609221,8.384509725105023,10.758894245547053,8.701405363343149,9.316899885311337,10.133985527615085,13.800571486064996,13.506956226546528,8.87711588829323,25.995627813127932,21.427915785813997,20.74496896279284,25.787032747913187,16.17144723489933,13.952913533834586,12.168175893175075,8.927411088834782,10.983742584558824,10.49123342084942,-2.0022396069868997,-2.2957638279192274,5.02168,6.755651170430944,10.336233626373629,4.984032563876652,8.110282681818182,3.5872106354378817,6.262033850402762,6.7355245231607626,8.538564158004158,4.284213207756233,4.796724987654321
priceFairValue,30.553901085207258,12.795197166979623,9.904366469993896,6.4889075193029315,5.045716221179113,5.5952829317582005,5.769662384465741,3.9959592806740645,4.829985249166737,4.961046312184298,5.975785398924483,5.804341684070796,3.9504682139800287,11.326581977704377,6.7987928421706725,6.516581493704797,3.627941807722616,1.94532116410135,1.379114774114774,1.554508998979592,1.526227952697346,4.180512864690721,3.6306083507917175,1.7400429000000002,1.4732142857142856,1.4737997380213719,2.0986484397564555,1.7810409871668311,2.7306250388660263,3.488760049801924,2.6085976807187286,3.9183764576043068,4.985917248255234,5.588575789473684,3.0585028357348705,2.0255808145454544
