,close,open,volume,low,high,adjclose
2020-01-02,75.0875015258789,74.05999755859375,135480400,73.79750061035156,75.1500015258789,73.84004211425781
2020-01-03,74.35749816894531,74.2874984741211,146322800,74.125,75.1449966430664,73.12215423583984
2020-01-06,74.94999694824219,73.44750213623047,118387200,73.1875,74.98999786376953,73.70481872558594
2020-01-07,74.59750366210938,74.95999908447266,108872000,74.37000274658203,75.2249984741211,73.35818481445312
2020-01-08,75.79750061035156,74.29000091552734,132079200,74.29000091552734,76.11000061035156,74.53823852539062
2020-01-09,77.40750122070312,76.80999755859375,170108400,76.55000305175781,77.60749816894531,76.12149810791016
2020-01-10,77.5824966430664,77.6500015258789,140644800,77.0625,78.1675033569336,76.2935791015625
2020-01-13,79.23999786376953,77.91000366210938,121532000,77.7874984741211,79.26750183105469,77.92353820800781
2020-01-14,78.16999816894531,79.17500305175781,161954400,78.0425033569336,79.39250183105469,76.87132263183594
2020-01-15,77.83499908447266,77.9625015258789,121923600,77.38749694824219,78.875,76.54188537597656
2020-01-16,78.80999755859375,78.39749908447266,108829200,78.02249908447266,78.92500305175781,77.50069427490234
2020-01-17,79.68250274658203,79.06749725341797,137816400,78.75,79.68499755859375,78.35869598388672
2020-01-21,79.14250183105469,79.29750061035156,110843200,79.0,79.75499725341797,77.82766723632812
2020-01-22,79.42500305175781,79.6449966430664,101832400,79.32749938964844,79.99749755859375,78.10547637939453
2020-01-23,79.80750274658203,79.4800033569336,104472000,78.9124984741211,79.88999938964844,78.48162078857422
2020-01-24,79.57749938964844,80.0625,146537600,79.37999725341797,80.8324966430664,78.25543975830078
2020-01-27,77.23750305175781,77.51499938964844,161940000,76.22000122070312,77.94249725341797,75.95431518554688
2020-01-28,79.42250061035156,78.1500015258789,162234000,78.04750061035156,79.5999984741211,78.10301208496094
2020-01-29,81.08499908447266,81.11250305175781,216229200,80.34500122070312,81.9625015258789,79.73789978027344
2020-01-30,80.96749877929688,80.13500213623047,126743200,79.6875,81.02249908447266,79.6223373413086
2020-01-31,77.37750244140625,80.23249816894531,199588400,77.07250213623047,80.66999816894531,76.09199523925781
2020-02-03,77.16500091552734,76.07499694824219,173985600,75.55500030517578,78.37249755859375,75.88301849365234
2020-02-04,79.7125015258789,78.82749938964844,136616400,78.40750122070312,79.91000366210938,78.38819885253906
2020-02-05,80.36250305175781,80.87999725341797,118826800,79.73750305175781,81.19000244140625,79.02740478515625
2020-02-06,81.30249786376953,80.64250183105469,105425600,80.06500244140625,81.30500030517578,79.95177459716797
2020-02-07,80.00749969482422,80.59249877929688,117684000,79.5,80.8499984741211,78.86502075195312
2020-02-10,80.38749694824219,78.54499816894531,109348800,78.4625015258789,80.38749694824219,79.23959350585938
2020-02-11,79.90249633789062,80.9000015258789,94323200,79.67749786376953,80.9749984741211,78.76152038574219
2020-02-12,81.80000305175781,80.36750030517578,113730400,80.36750030517578,81.80500030517578,80.63192749023438
2020-02-13,81.21749877929688,81.04750061035156,94747600,80.8375015258789,81.55500030517578,80.0577392578125
2020-02-14,81.23750305175781,81.18499755859375,80113600,80.7125015258789,81.49500274658203,80.07746124267578
2020-02-18,79.75,78.83999633789062,152531200,78.65249633789062,79.9375,78.61119842529297
2020-02-19,80.90499877929688,80.0,93984000,80.0,81.14250183105469,79.74970245361328
2020-02-20,80.07499694824219,80.65750122070312,100566000,79.55249786376953,81.1624984741211,78.93156433105469
2020-02-21,78.26249694824219,79.65499877929688,129554000,77.625,80.11250305175781,77.14494323730469
2020-02-24,74.54499816894531,74.31500244140625,222195200,72.30750274658203,76.04499816894531,73.48052215576172
2020-02-25,72.0199966430664,75.23750305175781,230673600,71.53250122070312,75.63249969482422,70.9915771484375
2020-02-26,73.1624984741211,71.63249969482422,198054800,71.625,74.47000122070312,72.11776733398438
2020-02-27,68.37999725341797,70.2750015258789,320605600,68.23999786376953,71.5,67.40355682373047
2020-02-28,68.33999633789062,64.31500244140625,426884800,64.09249877929688,69.60250091552734,67.36412811279297
2020-03-02,74.70249938964844,70.56999969482422,341397200,69.43000030517578,75.36000061035156,73.63577270507812
2020-03-03,72.33000183105469,75.9175033569336,319475600,71.44999694824219,76.0,71.29715728759766
2020-03-04,75.68499755859375,74.11000061035156,219178400,73.28250122070312,75.8499984741211,74.60424041748047
2020-03-05,73.2300033569336,73.87999725341797,187572800,72.85250091552734,74.88749694824219,72.1843032836914
2020-03-06,72.25749969482422,70.5,226176800,70.30750274658203,72.70500183105469,71.2256851196289
2020-03-09,66.5425033569336,65.9375,286744800,65.75,69.52249908447266,65.5923080444336
2020-03-10,71.33499908447266,69.28500366210938,285290000,67.34249877929688,71.61000061035156,70.31636810302734
2020-03-11,68.85749816894531,69.34750366210938,255598800,67.96499633789062,70.30500030517578,67.8742446899414
2020-03-12,62.057498931884766,63.98500061035156,418474000,62.0,67.5,61.17134094238281
2020-03-13,69.49250030517578,66.22250366210938,370732000,63.23749923706055,69.9800033569336,68.50017547607422
2020-03-16,60.5525016784668,60.48749923706055,322423600,60.0,64.7699966430664,59.68783187866211
2020-03-17,63.21500015258789,61.877498626708984,324056000,59.599998474121094,64.40249633789062,62.31230926513672
2020-03-18,61.66749954223633,59.942501068115234,300233600,59.279998779296875,62.5,60.78691101074219
2020-03-19,61.19499969482422,61.84749984741211,271857200,60.65250015258789,63.209999084472656,60.3211555480957
2020-03-20,57.310001373291016,61.79499816894531,401693200,57.0,62.95750045776367,56.491634368896484
2020-03-23,56.092498779296875,57.02000045776367,336752800,53.15250015258789,57.125,55.29151916503906
2020-03-24,61.720001220703125,59.09000015258789,287531200,58.57500076293945,61.92250061035156,60.838661193847656
2020-03-25,61.380001068115234,62.6875,303602000,61.07500076293945,64.5625,60.503517150878906
2020-03-26,64.61000061035156,61.630001068115234,252087200,61.59000015258789,64.66999816894531,63.68739318847656
2020-03-27,61.935001373291016,63.1875,204216800,61.76250076293945,63.967498779296875,61.050594329833984
2020-03-30,63.70249938964844,62.685001373291016,167976400,62.349998474121094,63.880001068115234,62.792850494384766
2020-03-31,63.5724983215332,63.900001525878906,197002000,63.0,65.62249755859375,62.66470718383789
2020-04-01,60.227500915527344,61.625,176218400,59.782501220703125,62.18000030517578,59.36747360229492
2020-04-02,61.23249816894531,60.084999084472656,165934000,59.224998474121094,61.287498474121094,60.35811996459961
2020-04-03,60.352500915527344,60.70000076293945,129880000,59.74250030517578,61.42499923706055,59.490692138671875
2020-04-06,65.61750030517578,62.724998474121094,201820400,62.345001220703125,65.77749633789062,64.68050384521484
2020-04-07,64.85749816894531,67.69999694824219,202887200,64.75,67.92500305175781,63.93135452270508
2020-04-08,66.51750183105469,65.68499755859375,168895200,65.30750274658203,66.84249877929688,65.56765747070312
2020-04-09,66.99749755859375,67.17500305175781,162116400,66.17500305175781,67.51750183105469,66.04080200195312
2020-04-13,68.3125,67.07749938964844,131022800,66.4574966430664,68.42500305175781,67.33702850341797
2020-04-14,71.76249694824219,70.0,194994800,69.51249694824219,72.0625,70.73775482177734
2020-04-15,71.10749816894531,70.5999984741211,131154400,70.15750122070312,71.5824966430664,70.09210968017578
2020-04-16,71.67250061035156,71.84500122070312,157125200,70.5875015258789,72.05000305175781,70.64904022216797
2020-04-17,70.69999694824219,71.17250061035156,215250000,69.21499633789062,71.73750305175781,69.69042205810547
2020-04-20,69.23249816894531,69.48750305175781,130015200,69.2125015258789,70.41999816894531,68.24388122558594
2020-04-21,67.09249877929688,69.06999969482422,180991600,66.35749816894531,69.3125,66.13443756103516
2020-04-22,69.0250015258789,68.40249633789062,117057200,68.05000305175781,69.4749984741211,68.03935241699219
2020-04-23,68.75749969482422,68.96749877929688,124814400,68.71749877929688,70.4375,67.77567291259766
2020-04-24,70.74250030517578,69.30000305175781,126508800,69.25,70.75250244140625,69.7323226928711
2020-04-27,70.7925033569336,70.44999694824219,117087600,69.98750305175781,71.13500213623047,69.78160858154297
2020-04-28,69.6449966430664,71.2699966430664,112004800,69.55000305175781,71.4574966430664,68.6504898071289
2020-04-29,71.93250274658203,71.18250274658203,137280800,70.97250366210938,72.4175033569336,70.90533447265625
2020-04-30,73.44999694824219,72.48999786376953,183064000,72.0875015258789,73.63249969482422,72.40115356445312
2020-05-01,72.26750183105469,71.5625,60154200,71.4625015258789,74.75,71.23554229736328
2020-05-04,73.29000091552734,72.2925033569336,33392000,71.58000183105469,73.42250061035156,72.24344635009766
2020-05-05,74.38999938964844,73.76499938964844,36937800,73.61499786376953,75.25,73.3277359008789
2020-05-06,75.15750122070312,75.11499786376953,35583400,74.71749877929688,75.80999755859375,74.08428192138672
2020-05-07,75.93499755859375,75.80500030517578,28803800,75.49250030517578,76.2925033569336,74.85066986083984
2020-05-08,77.53250122070312,76.41000366210938,33512000,76.07250213623047,77.5875015258789,77.25967407226562
2020-05-11,78.75250244140625,77.0250015258789,36486600,76.80999755859375,79.26249694824219,78.47537231445312
2020-05-12,77.85250091552734,79.4574966430664,40575300,77.72750091552734,79.92250061035156,77.57853698730469
2020-05-13,76.9124984741211,78.0374984741211,50155600,75.80249786376953,78.98750305175781,76.64185333251953
2020-05-14,77.38500213623047,76.12750244140625,39732300,75.38249969482422,77.44750213623047,77.11268615722656
2020-05-15,76.92749786376953,75.0875015258789,41587100,75.05249786376953,76.9749984741211,76.65679168701172
2020-05-18,78.73999786376953,78.2925033569336,33843100,77.58000183105469,79.125,78.4629135131836
2020-05-19,78.28500366210938,78.75749969482422,25343600,78.25250244140625,79.62999725341797,78.009521484375
2020-05-20,79.80750274658203,79.16999816894531,111504800,79.12999725341797,79.87999725341797,79.52666473388672
2020-05-21,79.2125015258789,79.66500091552734,102688800,78.96749877929688,80.22250366210938,78.93375396728516
2020-05-22,79.72250366210938,78.94249725341797,81803200,78.8375015258789,79.80750274658203,79.44196319580078
2020-05-26,79.18250274658203,80.875,125522000,79.125,81.05999755859375,78.90386199951172
2020-05-27,79.52749633789062,79.03500366210938,112945200,78.27249908447266,79.67749786376953,79.24764251708984
2020-05-28,79.5625,79.19249725341797,133560800,78.90750122070312,80.86000061035156,79.28252410888672
2020-05-29,79.48500061035156,79.8125,153598000,79.11750030517578,80.2874984741211,79.2052993774414
2020-06-01,80.4625015258789,79.4375,80791200,79.30249786376953,80.5875015258789,80.17935943603516
2020-06-02,80.83499908447266,80.1875,87642800,79.73249816894531,80.86000061035156,80.55054473876953
2020-06-03,81.27999877929688,81.16500091552734,104491200,80.57499694824219,81.55000305175781,80.99398040771484
2020-06-04,80.58000183105469,81.09750366210938,87560400,80.19499969482422,81.40499877929688,80.29644775390625
2020-06-05,82.875,80.8375015258789,137250400,80.80750274658203,82.9375,82.5833740234375
2020-06-08,83.36499786376953,82.5625,95654400,81.83000183105469,83.4000015258789,83.07164001464844
2020-06-09,85.99749755859375,83.03500366210938,147712400,83.00250244140625,86.40249633789062,85.69487762451172
2020-06-10,88.20999908447266,86.9749984741211,166651600,86.52249908447266,88.69249725341797,87.89958953857422
2020-06-11,83.9749984741211,87.32749938964844,201662400,83.87000274658203,87.76499938964844,83.67949676513672
2020-06-12,84.69999694824219,86.18000030517578,200146000,83.55500030517578,86.94999694824219,84.40194702148438
2020-06-15,85.74749755859375,83.3125,138808800,83.1449966430664,86.41999816894531,85.44575500488281
2020-06-16,88.0199966430664,87.86499786376953,165428800,86.18000030517578,88.30000305175781,87.71025848388672
2020-06-17,87.89749908447266,88.7874984741211,114406400,87.77249908447266,88.8499984741211,87.58819580078125
2020-06-18,87.93250274658203,87.85250091552734,96820400,87.30500030517578,88.36250305175781,87.62307739257812
2020-06-19,87.43000030517578,88.66000366210938,264476000,86.2874984741211,89.13999938964844,87.1223373413086
2020-06-22,89.71749877929688,87.83499908447266,135445200,87.7874984741211,89.86499786376953,89.40178680419922
2020-06-23,91.63249969482422,91.0,212155600,90.56749725341797,93.09500122070312,91.31005096435547
2020-06-24,90.01499938964844,91.25,192623200,89.62999725341797,92.19750213623047,89.6982421875
2020-06-25,91.20999908447266,90.17500305175781,137522400,89.39250183105469,91.25,90.8890380859375
2020-06-26,88.40750122070312,91.10250091552734,205256800,88.25499725341797,91.33000183105469,88.09640502929688
2020-06-29,90.44499969482422,88.3125,130646000,87.81999969482422,90.5425033569336,90.1267318725586
2020-06-30,91.19999694824219,90.0199966430664,140223200,90.0,91.49500274658203,90.87906646728516
2020-07-01,91.02749633789062,91.27999877929688,110737200,90.97750091552734,91.83999633789062,90.7071762084961
2020-07-02,91.02749633789062,91.9625015258789,114041600,90.91000366210938,92.61750030517578,90.7071762084961
2020-07-06,93.4625015258789,92.5,118655600,92.46749877929688,93.94499969482422,93.13361358642578
2020-07-07,93.17250061035156,93.85250091552734,112424400,93.05750274658203,94.65499877929688,92.84463500976562
2020-07-08,95.34249877929688,94.18000030517578,117092000,94.08999633789062,95.375,95.00699615478516
2020-07-09,95.75250244140625,96.26249694824219,125642800,94.67250061035156,96.31749725341797,95.41555786132812
2020-07-10,95.91999816894531,95.33499908447266,90257200,94.70500183105469,95.9800033569336,95.58246612548828
2020-07-13,95.47750091552734,97.26499938964844,191649200,95.25749969482422,99.95500183105469,95.14152526855469
2020-07-14,97.05750274658203,94.83999633789062,170989200,93.87750244140625,97.25499725341797,96.7159652709961
2020-07-15,97.7249984741211,98.98999786376953,153198000,96.48999786376953,99.24749755859375,97.38111114501953
2020-07-16,96.52249908447266,96.5625,110577600,95.90499877929688,97.40499877929688,96.18284606933594
2020-07-17,96.32749938964844,96.98750305175781,92186800,95.83999633789062,97.14749908447266,95.98853302001953
2020-07-20,98.35749816894531,96.4175033569336,90318000,96.0625,98.5,98.01139068603516
2020-07-21,97.0,99.17250061035156,103646000,96.74250030517578,99.25,96.65866088867188
2020-07-22,97.27249908447266,96.69249725341797,89001600,96.60250091552734,97.9749984741211,96.9301986694336
2020-07-23,92.84500122070312,96.99749755859375,197004400,92.01000213623047,97.07749938964844,92.5182876586914
2020-07-24,92.61499786376953,90.98750305175781,185438800,89.1449966430664,92.97000122070312,92.28909301757812
2020-07-27,94.80999755859375,93.70999908447266,121214000,93.4800033569336,94.90499877929688,94.47636413574219
2020-07-28,93.25250244140625,94.36750030517578,103625600,93.24749755859375,94.55000305175781,92.92435455322266
2020-07-29,95.04000091552734,93.75,90329200,93.7125015258789,95.2300033569336,94.70555877685547
2020-07-30,96.19000244140625,94.1875,158130000,93.76750183105469,96.29750061035156,95.85151672363281
2020-07-31,106.26000213623047,102.88500213623047,374336800,100.82499694824219,106.41500091552734,105.8860855102539
2020-08-03,108.9375,108.19999694824219,308151200,107.89250183105469,111.63749694824219,108.55415344238281
2020-08-04,109.66500091552734,109.13249969482422,173071600,108.38749694824219,110.79000091552734,109.27909851074219
2020-08-05,110.0625,109.37750244140625,121992000,108.89749908447266,110.39250183105469,109.6751937866211
2020-08-06,113.90249633789062,110.40499877929688,202428800,109.79750061035156,114.4124984741211,113.50167846679688
2020-08-07,111.11250305175781,113.20500183105469,198045600,110.2925033569336,113.67500305175781,110.92113494873047
2020-08-10,112.72750091552734,112.5999984741211,212403600,110.0,113.7750015258789,112.53335571289062
2020-08-11,109.375,111.97000122070312,187902400,109.10749816894531,112.48249816894531,109.1866226196289
2020-08-12,113.01000213623047,110.49749755859375,165944800,110.29750061035156,113.2750015258789,112.81536865234375
2020-08-13,115.01000213623047,114.43000030517578,210082000,113.92749786376953,116.0425033569336,114.81192016601562
2020-08-14,114.90750122070312,114.83000183105469,165565200,113.04499816894531,115.0,114.70960235595703
2020-08-17,114.60749816894531,116.0625,119561600,113.9625015258789,116.0875015258789,114.41011047363281
2020-08-18,115.5625,114.35250091552734,105633600,114.00749969482422,116.0,115.36347198486328
2020-08-19,115.7074966430664,115.98249816894531,145538000,115.61000061035156,117.1624984741211,115.50821685791016
2020-08-20,118.2750015258789,115.75,126907200,115.73249816894531,118.39250183105469,118.07129669189453
2020-08-21,124.37000274658203,119.26249694824219,338054800,119.25,124.86750030517578,124.15579986572266
2020-08-24,125.85749816894531,128.69749450683594,345937600,123.9375,128.78500366210938,125.64073944091797
2020-08-25,124.82499694824219,124.69750213623047,211495600,123.05249786376953,125.18000030517578,124.61001586914062
2020-08-26,126.52249908447266,126.18000030517578,163022400,125.0824966430664,126.99250030517578,126.30459594726562
2020-08-27,125.01000213623047,127.14250183105469,155552400,123.8324966430664,127.48500061035156,124.7947006225586
2020-08-28,124.80750274658203,126.01249694824219,187630000,124.57749938964844,126.44249725341797,124.5925521850586
2020-08-31,129.0399932861328,127.58000183105469,225702700,126.0,131.0,128.8177490234375
2020-09-01,134.17999267578125,132.75999450683594,152470100,130.52999877929688,134.8000030517578,133.9488983154297
2020-09-02,131.39999389648438,137.58999633789062,200119000,127.0,137.97999572753906,131.17369079589844
2020-09-03,120.87999725341797,126.91000366210938,257599600,120.5,128.83999633789062,120.67180633544922
2020-09-04,120.95999908447266,120.06999969482422,332607200,110.88999938964844,123.69999694824219,120.75167083740234
2020-09-08,112.81999969482422,113.94999694824219,231366600,112.68000030517578,118.98999786376953,112.62569427490234
2020-09-09,117.31999969482422,117.26000213623047,176940500,115.26000213623047,119.13999938964844,117.1179428100586
2020-09-10,113.48999786376953,120.36000061035156,182274400,112.5,120.5,113.29454040527344
2020-09-11,112.0,114.56999969482422,180860300,110.0,115.2300033569336,111.8071060180664
2020-09-14,115.36000061035156,114.72000122070312,140150100,112.80000305175781,115.93000030517578,115.16131591796875
2020-09-15,115.54000091552734,118.33000183105469,184642000,113.61000061035156,118.83000183105469,115.34101104736328
2020-09-16,112.12999725341797,115.2300033569336,154679000,112.04000091552734,116.0,111.93688201904297
2020-09-17,110.33999633789062,109.72000122070312,178011000,108.70999908447266,112.19999694824219,110.14996337890625
2020-09-18,106.83999633789062,110.4000015258789,287104900,106.08999633789062,110.87999725341797,106.65599060058594
2020-09-21,110.08000183105469,104.54000091552734,195713800,103.0999984741211,110.19000244140625,109.89041137695312
2020-09-22,111.80999755859375,112.68000030517578,183055400,109.16000366210938,112.86000061035156,111.617431640625
2020-09-23,107.12000274658203,111.62000274658203,150718700,106.7699966430664,112.11000061035156,106.93550872802734
2020-09-24,108.22000122070312,105.16999816894531,167743300,105.0,110.25,108.03361511230469
2020-09-25,112.27999877929688,108.43000030517578,149981400,107.66999816894531,112.44000244140625,112.08662414550781
2020-09-28,114.95999908447266,115.01000213623047,137672400,112.77999877929688,115.31999969482422,114.76200866699219
2020-09-29,114.08999633789062,114.55000305175781,99382200,113.56999969482422,115.30999755859375,113.89350128173828
2020-09-30,115.80999755859375,113.79000091552734,142675200,113.62000274658203,117.26000213623047,115.61054229736328
2020-10-01,116.79000091552734,117.63999938964844,116120400,115.83000183105469,117.72000122070312,116.58885955810547
2020-10-02,113.0199966430664,112.88999938964844,144712000,112.22000122070312,115.37000274658203,112.82534790039062
2020-10-05,116.5,113.91000366210938,106243800,113.55000305175781,116.6500015258789,116.29935455322266
2020-10-06,113.16000366210938,115.69999694824219,161498200,112.25,116.12000274658203,112.9651107788086
2020-10-07,115.08000183105469,114.62000274658203,96849000,114.12999725341797,115.55000305175781,114.88180541992188
2020-10-08,114.97000122070312,116.25,83477200,114.58999633789062,116.4000015258789,114.77198791503906
2020-10-09,116.97000122070312,115.27999877929688,100506900,114.91999816894531,117.0,116.76854705810547
2020-10-12,124.4000015258789,120.05999755859375,240226800,119.27999877929688,125.18000030517578,124.18575286865234
2020-10-13,121.0999984741211,125.2699966430664,262330500,119.6500015258789,125.38999938964844,120.89143371582031
2020-10-14,121.19000244140625,121.0,151062300,119.62000274658203,123.02999877929688,120.98127746582031
2020-10-15,120.70999908447266,118.72000122070312,112559200,118.1500015258789,121.19999694824219,120.50210571289062
2020-10-16,119.0199966430664,121.27999877929688,115393800,118.80999755859375,121.55000305175781,118.81501007080078
2020-10-19,115.9800033569336,119.95999908447266,120639300,115.66000366210938,120.41999816894531,115.7802505493164
2020-10-20,117.51000213623047,116.19999694824219,124423700,115.62999725341797,118.9800033569336,117.3076171875
2020-10-21,116.87000274658203,116.66999816894531,89946000,116.44999694824219,118.70999908447266,116.6687240600586
2020-10-22,115.75,117.44999694824219,101988000,114.58999633789062,118.04000091552734,115.55064392089844
2020-10-23,115.04000091552734,116.38999938964844,82572600,114.27999877929688,116.55000305175781,114.84187316894531
2020-10-26,115.05000305175781,114.01000213623047,111850700,112.87999725341797,116.55000305175781,114.85185241699219
2020-10-27,116.5999984741211,115.48999786376953,92276800,114.54000091552734,117.27999877929688,116.39917755126953
2020-10-28,111.19999694824219,115.05000305175781,143937800,111.0999984741211,115.43000030517578,111.00847625732422
2020-10-29,115.31999969482422,112.37000274658203,146129200,112.19999694824219,116.93000030517578,115.12138366699219
2020-10-30,108.86000061035156,111.05999755859375,190272600,107.72000122070312,111.98999786376953,108.67251586914062
2020-11-02,108.7699966430664,109.11000061035156,122866900,107.31999969482422,110.68000030517578,108.5826644897461
2020-11-03,110.44000244140625,109.66000366210938,107624400,108.7300033569336,111.48999786376953,110.24979400634766
2020-11-04,114.94999694824219,114.13999938964844,138235500,112.3499984741211,115.58999633789062,114.75202178955078
2020-11-05,119.02999877929688,117.94999694824219,126387100,116.87000274658203,119.62000274658203,118.82499694824219
2020-11-06,118.69000244140625,118.31999969482422,114457900,116.12999725341797,119.19999694824219,118.69000244140625
2020-11-09,116.31999969482422,120.5,154515300,116.05000305175781,121.98999786376953,116.31999969482422
2020-11-10,115.97000122070312,115.55000305175781,138023400,114.12999725341797,117.58999633789062,115.97000122070312
2020-11-11,119.48999786376953,117.19000244140625,112295000,116.44000244140625,119.62999725341797,119.48999786376953
2020-11-12,119.20999908447266,119.62000274658203,103162300,118.56999969482422,120.52999877929688,119.20999908447266
2020-11-13,119.26000213623047,119.44000244140625,81581900,117.87000274658203,119.66999816894531,119.26000213623047
2020-11-16,120.30000305175781,118.91999816894531,91183000,118.1500015258789,120.98999786376953,120.30000305175781
2020-11-17,119.38999938964844,119.55000305175781,74271000,118.95999908447266,120.66999816894531,119.38999938964844
2020-11-18,118.02999877929688,118.61000061035156,76169900,118.0,119.81999969482422,118.02999877929688
2020-11-19,118.55000305175781,117.58999633789062,56458873,116.80999755859375,118.69999694824219,118.55000305175781
